{
  "public": {
    "domain": "FlashxCard.com",
    "minCardInDeck": 5,
    "maxCardInDeck": 100,
    "needAdminApprovalInMarket": true,
    "plans": [

      {
        "name": "free",
        "amount": {
          "cents": 0,
          "usd": "$0"
        },
        "premiumDeckLimit": 1,
        "freeDeckLimit": 5,
        "interval": "month"
      },
      {
        "name": "tiny",
        "amount": {
          "cents": 500,
          "usd": "$5"
        },
        "premiumDeckLimit": 1,
        "freeDeckLimit": 5,
        "interval": "month"
      },
      {
        "name": "small",
        "amount": {
          "cents": 1000,
          "usd": "$10"
        },
        "premiumDeckLimit": 1,
        "freeDeckLimit": 5,
        "interval": "month"
      },
      {
        "name": "medium",
        "amount": {
          "cents": 1500,
          "usd": "$15"
        },
        "premiumDeckLimit": 1,
        "freeDeckLimit": 5,
        "interval": "month"
      },
      {
        "name": "large",
        "amount": {
          "cents": 2000,
          "usd": "$20"
        },
        "premiumDeckLimit": 1,
        "freeDeckLimit": 5,
        "interval": "month"
      }
    ],
    "stripe": {
      "testPublishableKey": "pk_test_ahUJfE9WILp5zGPthssTYJzk",
      "livePublishableKey": "pk_live_xxxxxxxxxxxxxxxxxxxxxxxx"
    }
  },
  "private": {
    "stripe": {
      "testSecretKey": "sk_test_A0kj21QPIbkRx9ON0RYdi7q0",
      "liveSecretKey": "sk_live_xxxxxxxxxxxxxxxxxxxxxxxx"
    },
    "oAuth": {
      "facebook": {
        "appId": "",
        "secret": ""
      },
      "github": {
        "clientId": "",
        "secret": ""
      },
      "google": {
        "clientId": "",
        "secret": ""
      },
      "twitter": {
        "consumerKey": "",
        "secret": ""
      }
    }
  }
}